<?xml version="1.0" encoding="utf-8"?>
<!-- Generator: Adobe Illustrator 22.0.1, SVG Export Plug-In . SVG Version: 6.00 Build 0)  -->
<svg version="1.1" id="Layer_1" xmlns="http://www.w3.org/2000/svg" xmlns:xlink="http://www.w3.org/1999/xlink" x="0px" y="0px"
	 viewBox="0 0 72 72" style="enable-background:new 0 0 72 72;" xml:space="preserve">
<style type="text/css">
	.st0{fill:none;}
	.st1{fill:#3F1310;}
	.st2{fill:#1C4586;}
	.st3{fill:#C12126;}
	.st4{fill:#A8C238;}
	.st5{fill:#B2B3B3;}
	.st6{fill:#FFDE17;}
	.st7{fill:#010101;}
	.st8{fill:#F8B54D;}
	.st9{fill:#FFFFFF;}
	.st10{fill:#334B5E;}
	.st11{fill:#FFD15C;}
	.st12{fill:#F0EFEF;}
	.st13{fill:#E1E0E3;}
	.st14{fill:#499DD6;}
	.st15{fill:#457DC0;}
	.st16{fill:#FFDAA7;}
	.st17{fill:#FDC375;}
	.st18{fill:#A07952;}
	.st19{fill:#C7C5CC;}
	.st20{fill:#AFADB3;}
	.st21{fill:#8A6847;}
	.st22{fill:#58C2AE;}
	.st23{fill:#36BBA0;}
	.st24{fill:#D1D3D4;}
	.st25{fill:#939598;}
	.st26{fill:#56C0EA;}
	.st27{fill:#F3715B;}
	.st28{fill:#9D1D21;}
	.st29{fill:#2D368E;}
	.st30{fill:#0C72BA;}
	.st31{clip-path:url(#SVGID_10_);fill:#1C4586;}
	.st32{clip-path:url(#SVGID_12_);fill:#1C4586;}
</style>
<g>
	<rect class="st0" width="72" height="72"/>
	<g>
		<path class="st2" d="M58.9,49.5H13c-1.1,0-2-0.9-2-2V15.7c0-1.1,0.9-2,2-2h45.9c1.1,0,2,0.9,2,2v31.8C61,48.6,60,49.5,58.9,49.5z"
			/>
		<rect x="13.4" y="16.8" class="st9" width="45.3" height="28.5"/>
		<g>
			<path class="st24" d="M58.9,53.7H13.1c-2.3,0-4.1-1.8-4.1-4.1l0,0h54l0,0C63,51.9,61.1,53.7,58.9,53.7z"/>
		</g>
		<polygon class="st25" points="44,49.6 28,49.6 29.2,51.1 42.7,51.1 		"/>
		<g>
			<path class="st2" d="M34.9,42.9c2.3,0,4.4-0.6,6.3-1.7c0.1-0.4,0.1-0.9,0.1-1.3c0-4.5-2.8-5.9-6.4-5.9c-3.5,0-6.4,1.4-6.4,5.9
				c0,0.4,0,0.9,0.1,1.3C30.5,42.2,32.6,42.9,34.9,42.9z"/>
			<ellipse class="st8" cx="34.9" cy="33.6" rx="1.7" ry="2.9"/>
			<g>
				<path class="st9" d="M36.6,33.5c0,0-1,0.6-1.6,0.6l0.9,1.9l1.3-1.8L36.6,33.5z"/>
				<path class="st9" d="M33.3,33.5c0,0,1,0.6,1.6,0.6L34,36l-1.3-1.8L33.3,33.5z"/>
			</g>
			<path class="st10" d="M39.5,25.4c0,2.7-2.1,6.4-4.6,6.4s-4.6-3.8-4.6-6.4s2.1-3.9,4.6-3.9S39.5,22.7,39.5,25.4z"/>
			<path class="st11" d="M38.4,28.1c0,2.7-1.5,4.9-3.4,4.9c-1.9,0-3.4-2.2-3.4-4.9c0-1.6,0.6-3.1,1.4-4c0.6,0.6,1.3,1.2,2.2,1.7
				c1.1,0.7,2.2,1.2,3.2,1.4C38.3,27.5,38.4,27.8,38.4,28.1z"/>
		</g>
		<g>
			
				<rect x="43.2" y="38.4" transform="matrix(0.7071 -0.7071 0.7071 0.7071 -15.7543 43.9202)" class="st10" width="3.8" height="5.1"/>
			<path class="st26" d="M44.2,21.4c-5.2-5.1-13.5-5.1-18.6,0c-5.1,5.1-5.1,13.5,0,18.6c5.1,5.1,13.5,5.1,18.6,0
				C49.3,34.9,49.3,26.5,44.2,21.4z M44.5,34c-0.5,1.4-1.3,2.7-2.4,3.8c-2,2-4.6,3-7.2,3s-5.2-1-7.2-3c-1.1-1.1-1.9-2.4-2.4-3.8
				c-0.4-1-0.5-2-0.6-3c-0.1-1.3,0.1-2.6,0.6-3.9c0.4-1.1,0.9-2.1,1.7-3c0.2-0.3,0.4-0.5,0.6-0.7c2-2,4.6-3,7.2-3s5.2,1,7.2,3
				c0.2,0.2,0.5,0.5,0.6,0.7c0.8,0.9,1.3,1.9,1.7,3c0.5,1.2,0.7,2.4,0.7,3.5c0,0.1,0,0.3,0,0.4C45.1,32,44.9,33.1,44.5,34z"/>
			<path class="st27" d="M62.2,55.1L59.3,58c-0.5,0.5-1.3,0.5-1.8,0L44.7,45.2c-0.5-0.5-0.5-1.3,0-1.8l2.9-2.9
				c0.5-0.5,1.3-0.5,1.8,0l12.8,12.8C62.7,53.8,62.7,54.7,62.2,55.1z"/>
		</g>
	</g>
</g>
</svg>
