<?xml version="1.0" encoding="utf-8"?>
<!-- Generator: Adobe Illustrator 22.0.1, SVG Export Plug-In . SVG Version: 6.00 Build 0)  -->
<svg version="1.1" id="Layer_1" xmlns="http://www.w3.org/2000/svg" xmlns:xlink="http://www.w3.org/1999/xlink" x="0px" y="0px"
	 viewBox="0 0 72 72" style="enable-background:new 0 0 72 72;" xml:space="preserve">
<style type="text/css">
	.st0{fill:none;}
	.st1{fill:#3F1310;}
	.st2{fill:#1C4586;}
	.st3{fill:#C12126;}
	.st4{fill:#A8C238;}
	.st5{fill:#B2B3B3;}
	.st6{fill:#FFDE17;}
	.st7{fill:#010101;}
	.st8{fill:#F8B54D;}
	.st9{fill:#FFFFFF;}
	.st10{fill:#334B5E;}
	.st11{fill:#FFD15C;}
	.st12{fill:#F0EFEF;}
	.st13{fill:#E1E0E3;}
	.st14{fill:#499DD6;}
	.st15{fill:#457DC0;}
	.st16{fill:#FFDAA7;}
	.st17{fill:#FDC375;}
	.st18{fill:#A07952;}
	.st19{fill:#C7C5CC;}
	.st20{fill:#AFADB3;}
	.st21{fill:#8A6847;}
	.st22{fill:#58C2AE;}
	.st23{fill:#36BBA0;}
	.st24{fill:#D1D3D4;}
	.st25{fill:#939598;}
	.st26{fill:#56C0EA;}
	.st27{fill:#F3715B;}
	.st28{fill:#9D1D21;}
	.st29{fill:#2D368E;}
	.st30{fill:#0C72BA;}
	.st31{clip-path:url(#SVGID_10_);fill:#1C4586;}
	.st32{clip-path:url(#SVGID_12_);fill:#1C4586;}
</style>
<g>
	<rect class="st0" width="72" height="72"/>
	<path class="st28" d="M27.9,55.2c-10-0.5-13.9-10.2-9.9-15.6c4.7-6.3,17.4-1.5,21.9,4c7.2,8.6,7,17.5,7,17.5s8-5,12.3-14.5
		c2.1-4.8,7.3-13.9-0.8-20.2C55.3,24,54.9,18,56,16.4c0.2-0.1,0.7-0.2,1,0.5c0.2-0.7-0.6-1.4,0.1-1.6c-0.2,3.1,1.5,3.4,2.5,3.2
		c-2.1-1.6-1.3-3.2-1.7-3.5c-0.3-0.3-0.7-0.2-0.7-0.2s0.6-0.7,1.7-0.6c-0.3-0.7-2.3-0.5-2.3-0.5s0.9-1.4,0.4-2.7
		c-0.6,1.1-2.5,2.2-3.4,2.4c-0.9,0.2-3.8-0.6-3.8-0.6s0.9,1.7,2.7,2c1.2,0.2,2.5-0.2,2.5-0.2s-2.5,2.1-3.3,5.3
		c-0.9,3.9-0.5,9.2-6,13.2c-4.2,3.1-12.2,4.2-12.2,4.2S29,32,25.1,30.5c-3.9-1.5-10-3.1-14,2.8s-1.4,13.7,1.7,16.8
		C15.3,52.7,20.6,56.4,27.9,55.2z"/>
</g>
</svg>
